<svg width="60" height="60" viewBox="0 0 60 60"   xmlns="http://www.w3.org/2000/svg">
 
<path d="M11.4524 27.7408L29.5971 9.54956L47.7417 27.7408V51.2823H11.4524V27.7408Z" fill-opacity="0.19"/>
<path fill-rule="evenodd" clip-rule="evenodd" d="M32.2729 9.27318L32.273 9.27315L30.0002 7.0004L30.0002 7.00043L29.9998 7L27.727 9.27275L27.7274 9.27318L5 32.0006L7.27275 34.2734L10.7143 30.8318V48.9625H13.9285V27.6176L30.0002 11.5459L46.0701 27.6158V48.9625H49.2842V30.83L52.7272 34.273L55 32.0002L32.2729 9.27318ZM23.5706 48.9626H10.7143V52.1767H49.2841V48.9626H36.4278V36.1063H33.2136V48.9626H26.7847V36.1063H23.5706V48.9626ZM36.4272 32.892H23.5706V36.1062H36.4272V32.892Z" />
</svg>
