<svg width="26" height="26" viewBox="0 0 26 26" fill="none" xmlns="http://www.w3.org/2000/svg">
<path d="M1.625 21.125H24.375V22.75H1.625V21.125Z" fill="#777777"/>
<path d="M20.6375 7.3125C21.2875 6.6625 21.2875 5.6875 20.6375 5.0375L17.7125 2.1125C17.0625 1.4625 16.0875 1.4625 15.4375 2.1125L3.25 14.3V19.5H8.45L20.6375 7.3125ZM16.575 3.25L19.5 6.175L17.0625 8.6125L14.1375 5.6875L16.575 3.25ZM4.875 17.875V14.95L13 6.825L15.925 9.75L7.8 17.875H4.875Z" fill="#777777"/>
</svg>
