<svg width="60" height="60" viewBox="0 0 60 60"  xmlns="http://www.w3.org/2000/svg"> 
<rect x="37.25" y="8.25" width="12.0833" height="12.0833" rx="6.04166" fill-opacity="0.15"/>
<rect x="5.83325" y="22.75" width="14.5" height="14.5" rx="7.25" fill-opacity="0.15"/>
<rect x="34.8333" y="39.6666" width="14.5" height="14.5" rx="7.25" fill-opacity="0.15"/>
<path d="M42.6876 37.2501C41.3309 37.2569 39.993 37.5683 38.7727 38.1612C37.5524 38.7541 36.4808 39.6134 35.6369 40.6757L22.3876 32.3926C22.8704 30.8342 22.8704 29.1661 22.3876 27.6076L35.6369 19.3245C36.9817 20.9897 38.8725 22.1251 40.9742 22.5297C43.076 22.9343 45.2532 22.582 47.1201 21.5351C48.9869 20.4882 50.423 18.8143 51.1739 16.8099C51.9248 14.8056 51.942 12.6002 51.2225 10.5843C50.5031 8.56849 49.0933 6.87237 47.243 5.79642C45.3927 4.72047 43.2214 4.33413 41.1135 4.70585C39.0056 5.07757 37.0974 6.18335 35.7268 7.8273C34.3561 9.47126 33.6116 11.5473 33.6251 13.6876C33.6336 14.4981 33.7556 15.3035 33.9876 16.0801L20.7382 24.3633C19.5685 22.8907 17.9697 21.8186 16.1633 21.2954C14.357 20.7722 12.4327 20.8239 10.6571 21.4433C8.88146 22.0628 7.34252 23.2192 6.25357 24.7524C5.16461 26.2856 4.57959 28.1196 4.57959 30.0001C4.57959 31.8807 5.16461 33.7147 6.25357 35.2479C7.34252 36.781 8.88146 37.9375 10.6571 38.5569C12.4327 39.1763 14.357 39.228 16.1633 38.7048C17.9697 38.1817 19.5685 37.1095 20.7382 35.637L33.9876 43.9201C33.7556 44.6968 33.6336 45.5021 33.6251 46.3126C33.6251 48.105 34.1566 49.8572 35.1524 51.3475C36.1482 52.8378 37.5635 53.9994 39.2195 54.6853C40.8754 55.3712 42.6976 55.5507 44.4556 55.201C46.2135 54.8513 47.8283 53.9882 49.0957 52.7208C50.3631 51.4534 51.2262 49.8386 51.5759 48.0806C51.9256 46.3227 51.7461 44.5005 51.0602 42.8446C50.3743 41.1886 49.2127 39.7732 47.7224 38.7774C46.2321 37.7816 44.48 37.2501 42.6876 37.2501V37.2501ZM42.6876 8.25013C43.763 8.25013 44.8143 8.56903 45.7085 9.16651C46.6027 9.76399 47.2996 10.6132 47.7112 11.6068C48.1227 12.6004 48.2304 13.6937 48.0206 14.7484C47.8108 15.8032 47.2929 16.7721 46.5325 17.5325C45.772 18.293 44.8031 18.8108 43.7484 19.0206C42.6936 19.2305 41.6003 19.1228 40.6067 18.7112C39.6131 18.2997 38.7639 17.6027 38.1664 16.7085C37.569 15.8143 37.2501 14.7631 37.2501 13.6876C37.2501 12.2455 37.8229 10.8625 38.8427 9.84273C39.8624 8.823 41.2454 8.25013 42.6876 8.25013V8.25013ZM13.6876 35.4376C12.6121 35.4376 11.5608 35.1187 10.6666 34.5212C9.77245 33.9238 9.07552 33.0745 8.66396 32.081C8.25241 31.0874 8.14473 29.9941 8.35454 28.9393C8.56435 27.8846 9.08222 26.9157 9.84267 26.1552C10.6031 25.3948 11.572 24.8769 12.6268 24.6671C13.6815 24.4573 14.7748 24.565 15.7684 24.9765C16.762 25.3881 17.6112 26.085 18.2087 26.9792C18.8062 27.8734 19.1251 28.9247 19.1251 30.0001C19.1251 31.4422 18.5522 32.8253 17.5325 33.845C16.5127 34.8647 15.1297 35.4376 13.6876 35.4376ZM42.6876 51.7501C41.6121 51.7501 40.5608 51.4312 39.6666 50.8337C38.7725 50.2363 38.0755 49.387 37.664 48.3935C37.2524 47.3999 37.1447 46.3066 37.3545 45.2518C37.5643 44.197 38.0822 43.2282 38.8427 42.4677C39.6031 41.7073 40.572 41.1894 41.6268 40.9796C42.6815 40.7698 43.7748 40.8775 44.7684 41.289C45.762 41.7006 46.6112 42.3975 47.2087 43.2917C47.8062 44.1859 48.1251 45.2372 48.1251 46.3126C48.1251 47.7547 47.5522 49.1378 46.5325 50.1575C45.5127 51.1772 44.1297 51.7501 42.6876 51.7501V51.7501Z"/>
</svg>
