<svg width="18" height="18" viewBox="0 0 18 18" xmlns="http://www.w3.org/2000/svg">
<path fill-rule="evenodd" clip-rule="evenodd" d="M12.4136 8.5927C12.6427 8.81784 12.6427 9.18157 12.4136 9.4073L6.97537 14.7557C6.64459 15.0814 6.1064 15.0814 5.77504 14.7557C5.44425 14.43 5.44425 13.9013 5.77504 13.5756L10.4271 8.99971L5.77503 4.42497C5.44425 4.09866 5.44425 3.57002 5.77503 3.24429C6.1064 2.91857 6.64459 2.91857 6.97537 3.24429L12.4136 8.5927Z"  />
</svg>
